^D:\ONDRA\PROJEKTY\CUDA\FIRSTCUDA\TUT 11 THRUST\DEBUG\MAIN.CU.OBJ
D:\ONDRA\PROJEKTY\CUDA\FIRSTCUDA\DEBUG\TUT 11 THRUST.ILK
D:\ONDRA\PROJEKTY\CUDA\FIRSTCUDA\DEBUG\TUT 11 THRUST.EXE
D:\ONDRA\PROJEKTY\CUDA\FIRSTCUDA\DEBUG\TUT 11 THRUST.PDB
